^C:\USERS\ОЛЬГА.POLUBOG97\DOCUMENTS\VISUAL STUDIO 2010\PROJECTS\VBABISON\VBABISON\STDAFX.CPP
/c /ZI /nologo /W3 /WX- /Od /Oy- /D WIN32 /D _DEBUG /D _CONSOLE /D _UNICODE /D UNICODE /Gm /EHsc /RTC1 /MDd /GS /fp:precise /Zc:wchar_t /Zc:forScope /Yc"StdAfx.h" /Fp"Debug\VBABison.pch" /Fo"Debug\\" /Fd"Debug\vc100.pdb" /Gd /TP /analyze- /errorReport:prompt C:\USERS\ОЛЬГА.POLUBOG97\DOCUMENTS\VISUAL STUDIO 2010\PROJECTS\VBABISON\VBABISON\STDAFX.CPP
^C:\USERS\ОЛЬГА.POLUBOG97\DOCUMENTS\VISUAL STUDIO 2010\PROJECTS\VBABISON\VBABISON\FORBISON_TAB.C
/c /ZI /nologo /W3 /WX- /Od /Oy- /D WIN32 /D _DEBUG /D _CONSOLE /D _UNICODE /D UNICODE /Gm /EHsc /RTC1 /MDd /GS /fp:precise /Zc:wchar_t /Zc:forScope /Fo"Debug\\" /Fd"Debug\vc100.pdb" /Gd /TC /analyze- /errorReport:prompt C:\USERS\ОЛЬГА.POLUBOG97\DOCUMENTS\VISUAL STUDIO 2010\PROJECTS\VBABISON\VBABISON\FORBISON_TAB.C
^C:\USERS\ОЛЬГА.POLUBOG97\DOCUMENTS\VISUAL STUDIO 2010\PROJECTS\VBABISON\VBABISON\LEXER.C
/c /ZI /nologo /W3 /WX- /Od /Oy- /D WIN32 /D _DEBUG /D _CONSOLE /D _UNICODE /D UNICODE /Gm /EHsc /RTC1 /MDd /GS /fp:precise /Zc:wchar_t /Zc:forScope /Fo"Debug\\" /Fd"Debug\vc100.pdb" /Gd /TC /analyze- /errorReport:prompt C:\USERS\ОЛЬГА.POLUBOG97\DOCUMENTS\VISUAL STUDIO 2010\PROJECTS\VBABISON\VBABISON\LEXER.C
^D:\UCHEBA\VBA\PARSERBIZON\VBABISON\VBABISON\STDAFX.CPP
/c /ZI /nologo /W3 /WX- /Od /Oy- /D WIN32 /D _DEBUG /D _CONSOLE /D _UNICODE /D UNICODE /Gm /EHsc /RTC1 /MDd /GS /fp:precise /Zc:wchar_t /Zc:forScope /Yc"StdAfx.h" /Fp"Debug\VBABison.pch" /Fo"Debug\\" /Fd"Debug\vc100.pdb" /Gd /TP /analyze- /errorReport:prompt D:\UCHEBA\VBA\PARSERBIZON\VBABISON\VBABISON\STDAFX.CPP
^D:\UCHEBA\VBA\PARSERBIZON\VBABISON\VBABISON\FORBISON_TAB.C
/c /ZI /nologo /W3 /WX- /Od /Oy- /D WIN32 /D _DEBUG /D _CONSOLE /D _UNICODE /D UNICODE /Gm /EHsc /RTC1 /MDd /GS /fp:precise /Zc:wchar_t /Zc:forScope /Fo"Debug\\" /Fd"Debug\vc100.pdb" /Gd /TC /analyze- /errorReport:prompt D:\UCHEBA\VBA\PARSERBIZON\VBABISON\VBABISON\FORBISON_TAB.C
^D:\UCHEBA\VBA\PARSERBIZON\VBABISON\VBABISON\LEXER.C
/c /ZI /nologo /W3 /WX- /Od /Oy- /D WIN32 /D _DEBUG /D _CONSOLE /D _UNICODE /D UNICODE /Gm /EHsc /RTC1 /MDd /GS /fp:precise /Zc:wchar_t /Zc:forScope /Fo"Debug\\" /Fd"Debug\vc100.pdb" /Gd /TC /analyze- /errorReport:prompt D:\UCHEBA\VBA\PARSERBIZON\VBABISON\VBABISON\LEXER.C
