^C:\USERS\ОЛЬГА.POLUBOG97\DOCUMENTS\VISUAL STUDIO 2010\PROJECTS\VBABISON\VBABISON\DEBUG\FORBISON_TAB.OBJ|C:\USERS\ОЛЬГА.POLUBOG97\DOCUMENTS\VISUAL STUDIO 2010\PROJECTS\VBABISON\VBABISON\DEBUG\LEXER.OBJ|C:\USERS\ОЛЬГА.POLUBOG97\DOCUMENTS\VISUAL STUDIO 2010\PROJECTS\VBABISON\VBABISON\DEBUG\STDAFX.OBJ
/ERRORREPORT:PROMPT /OUT:"C:\Users\Ольга.POLUBOG97\documents\visual studio 2010\Projects\VBABison\Debug\VBABison.exe" /INCREMENTAL:NO /NOLOGO kernel32.lib user32.lib gdi32.lib winspool.lib comdlg32.lib advapi32.lib shell32.lib ole32.lib oleaut32.lib uuid.lib odbc32.lib odbccp32.lib /MANIFEST /ManifestFile:"Debug\VBABison.exe.intermediate.manifest" /MANIFESTUAC:"level='asInvoker' uiAccess='false'" /DEBUG /PDB:"C:\Users\Ольга.POLUBOG97\documents\visual studio 2010\Projects\VBABison\Debug\VBABison.pdb" /SUBSYSTEM:CONSOLE /TLBID:1 /DYNAMICBASE /NXCOMPAT /IMPLIB:"C:\Users\Ольга.POLUBOG97\documents\visual studio 2010\Projects\VBABison\Debug\VBABison.lib" /MACHINE:X86 Debug\forbison_tab.obj
Debug\lexer.obj
Debug\stdafx.obj
^D:\UCHEBA\VBA\PARSERBIZON\VBABISON\VBABISON\DEBUG\FORBISON_TAB.OBJ|D:\UCHEBA\VBA\PARSERBIZON\VBABISON\VBABISON\DEBUG\LEXER.OBJ|D:\UCHEBA\VBA\PARSERBIZON\VBABISON\VBABISON\DEBUG\STDAFX.OBJ
/ERRORREPORT:PROMPT /OUT:"D:\ucheba\vba\parserbizon\VBABison\Debug\VBABison.exe" /INCREMENTAL:NO /NOLOGO kernel32.lib user32.lib gdi32.lib winspool.lib comdlg32.lib advapi32.lib shell32.lib ole32.lib oleaut32.lib uuid.lib odbc32.lib odbccp32.lib /MANIFEST /ManifestFile:"Debug\VBABison.exe.intermediate.manifest" /MANIFESTUAC:"level='asInvoker' uiAccess='false'" /DEBUG /PDB:"D:\ucheba\vba\parserbizon\VBABison\Debug\VBABison.pdb" /SUBSYSTEM:CONSOLE /TLBID:1 /DYNAMICBASE /NXCOMPAT /IMPLIB:"D:\ucheba\vba\parserbizon\VBABison\Debug\VBABison.lib" /MACHINE:X86 Debug\forbison_tab.obj
Debug\lexer.obj
Debug\stdafx.obj
