^C:\USERS\ОЛЬГА.POLUBOG97\DOCUMENTS\VISUAL STUDIO 2010\PROJECTS\VBABISON\VBABISON\DEBUG\VBABISON.EXE.INTERMEDIATE.MANIFEST
C:\USERS\Ольга.POLUBOG97\DOCUMENTS\VISUAL STUDIO 2010\PROJECTS\VBABISON\DEBUG\VBABISON.EXE
^D:\UCHEBA\VBA\PARSERBIZON\VBABISON\VBABISON\DEBUG\VBABISON.EXE.INTERMEDIATE.MANIFEST
D:\UCHEBA\VBA\PARSERBIZON\VBABISON\DEBUG\VBABISON.EXE
